{
    "content" :{
        "1": ["<","button","avant"],
        "2": [">","button","après"],
        "3": ["Portfolio de Gweltaz Caris","h1","titrePortfolio"]
    },
    "Aside": {
        // "1": ["","h3","mailTitle","cover":["gweltazcaris.pro@gmail.com","a","mailcover"]]
    }
}